[
    {
    "id": 1,
    "name": "RCA",
    "country": "MAR"
    },
    {
    "id": 2,
    "name": "WAC",
    "country": "WAC"
    },
    {
    "id": 3,
    "name": "RCB",
    "country": "BARCELONA"
    },
    {
    "id": 4,
    "name": "ARS",
    "country": "ENGLAND"
    },
    {
    "id": 5,
    "name": "INTER",
    "country": "ITALIE"
}
]